#
# checksum software files
#
0x001F43B2	/export/home/gtacsops/gaim/checksumUNIX/check_files
#
# GAIM software files on SARC unix server
#
0x00399D6E	/export/home/gtacsops/gaim/bin/Check_GTACS
0x0209A50E	/export/home/gtacsops/gaim/bin/N-Q_Interface_Manager
0x05C10DED	/export/home/gtacsops/gaim/bin/Update_Buffer_Generator
0x00478E27	/export/home/gtacsops/gaim/bin/Update_Buffer_Sender
0x00E41D49	/export/home/gtacsops/gaim/bin/Playback_Update_Buffer
0x012A210E	/export/home/gtacsops/gaim/bin/Stream_Data_Receiver
0x00020702	/export/home/gtacsops/gaim/bin/check_gaim.sh
0x00014EB0	/export/home/gtacsops/gaim/bin/start_gaim.sh
0x00014FE0	/export/home/gtacsops/gaim/bin/kill_gaim.sh
0x064F8A5D	/export/home/gtacsops/epoch/bin/install_db
0x00044FC2	/export/home/gtacsops/epoch/bin/libXeALT.so
0x000D8C13	/export/home/gtacsops/epoch/bin/libtcext.so
0x0028FAD8	/export/home/gtacsops/epoch/database/reports/epoch.cfg
0x000319DC	/export/home/gtacsops/epoch/database/reports/gaim.cfg
